---
http_interactions:
- request:
    method: get
    uri: https://api.pexels.com/v1/search?query=denver,co
    body:
      encoding: US-ASCII
      string: ''
    headers:
      Authorization:
      - 563492ad6f91700001000001896d826924764ff19860adc3091aea73
      User-Agent:
      - Faraday v2.2.0
      Accept-Encoding:
      - gzip;q=1.0,deflate;q=0.6,identity;q=0.3
      Accept:
      - "*/*"
  response:
    status:
      code: 200
      message: OK
    headers:
      Date:
      - Sat, 23 Apr 2022 21:05:53 GMT
      Content-Type:
      - application/json; charset=utf-8
      Transfer-Encoding:
      - chunked
      Connection:
      - keep-alive
      Cf-Ray:
      - 70098f5419188f64-SEA
      Cache-Control:
      - max-age=0, private, must-revalidate
      Set-Cookie:
      - __cf_bm=MKtRmK4erB.6JeYs8CB13FsEjRPtzFvVbyzylZ58pHI-1650747953-0-AQ3oBve4f/aGcsS4nrpCejB5S7ItHZFIjg4MRh8dnQYJxk0TLB5WJwQ4zzZsoPTM/UHGHh1Z6XWWJRSCekwatUg=;
        path=/; expires=Sat, 23-Apr-22 21:35:53 GMT; domain=.pexels.com; HttpOnly;
        Secure; SameSite=None
      - __cf_bm=XxoH.xfwsUmze0YwbI0Sd4Vf5w02dnGfrJJr.FFLnxo-1650747953-0-AdMfLbBEMh0o04gVctCOyqFyhhshRgZkWrufjUQpJjA94DU0eAooU0VncL8VIQQZmAoPoF1usI/s5haWSCKr+KE=;
        path=/; expires=Sat, 23-Apr-22 21:35:53 GMT; domain=.pexels.com; HttpOnly;
        Secure; SameSite=None
      Vary:
      - Origin, Accept-Encoding
      Cf-Cache-Status:
      - DYNAMIC
      Alt-Svc:
      - h3=":443"; ma=86400, h3-29=":443"; ma=86400
      Expect-Ct:
      - max-age=604800, report-uri="https://report-uri.cloudflare.com/cdn-cgi/beacon/expect-ct"
      X-Frame-Options:
      - SAMEORIGIN
      X-Ratelimit-Limit:
      - '20000'
      X-Ratelimit-Remaining:
      - '19999'
      X-Ratelimit-Reset:
      - '1653267953'
      X-Request-Id:
      - 54eb329a-8bb6-447b-a20b-dcb60b336b52
      X-Runtime:
      - '0.152930'
      X-Server:
      - alpaca
      Server:
      - cloudflare
    body:
      encoding: ASCII-8BIT
      string: '{"page":1,"per_page":15,"photos":[{"id":8867272,"width":4000,"height":6000,"url":"https://www.pexels.com/photo/group-of-people-working-in-a-call-center-8867272/","photographer":"Yan
        Krukov","photographer_url":"https://www.pexels.com/@yankrukov","photographer_id":2905570,"avg_color":"#978F82","src":{"original":"https://images.pexels.com/photos/8867272/pexels-photo-8867272.jpeg","large2x":"https://images.pexels.com/photos/8867272/pexels-photo-8867272.jpeg?auto=compress\u0026cs=tinysrgb\u0026dpr=2\u0026h=650\u0026w=940","large":"https://images.pexels.com/photos/8867272/pexels-photo-8867272.jpeg?auto=compress\u0026cs=tinysrgb\u0026h=650\u0026w=940","medium":"https://images.pexels.com/photos/8867272/pexels-photo-8867272.jpeg?auto=compress\u0026cs=tinysrgb\u0026h=350","small":"https://images.pexels.com/photos/8867272/pexels-photo-8867272.jpeg?auto=compress\u0026cs=tinysrgb\u0026h=130","portrait":"https://images.pexels.com/photos/8867272/pexels-photo-8867272.jpeg?auto=compress\u0026cs=tinysrgb\u0026fit=crop\u0026h=1200\u0026w=800","landscape":"https://images.pexels.com/photos/8867272/pexels-photo-8867272.jpeg?auto=compress\u0026cs=tinysrgb\u0026fit=crop\u0026h=627\u0026w=1200","tiny":"https://images.pexels.com/photos/8867272/pexels-photo-8867272.jpeg?auto=compress\u0026cs=tinysrgb\u0026dpr=1\u0026fit=crop\u0026h=200\u0026w=280"},"liked":false,"alt":"Man
        and Woman Sitting at the Table"},{"id":8867237,"width":6000,"height":4000,"url":"https://www.pexels.com/photo/woman-in-black-blazer-wearing-a-headset-8867237/","photographer":"Yan
        Krukov","photographer_url":"https://www.pexels.com/@yankrukov","photographer_id":2905570,"avg_color":"#868583","src":{"original":"https://images.pexels.com/photos/8867237/pexels-photo-8867237.jpeg","large2x":"https://images.pexels.com/photos/8867237/pexels-photo-8867237.jpeg?auto=compress\u0026cs=tinysrgb\u0026dpr=2\u0026h=650\u0026w=940","large":"https://images.pexels.com/photos/8867237/pexels-photo-8867237.jpeg?auto=compress\u0026cs=tinysrgb\u0026h=650\u0026w=940","medium":"https://images.pexels.com/photos/8867237/pexels-photo-8867237.jpeg?auto=compress\u0026cs=tinysrgb\u0026h=350","small":"https://images.pexels.com/photos/8867237/pexels-photo-8867237.jpeg?auto=compress\u0026cs=tinysrgb\u0026h=130","portrait":"https://images.pexels.com/photos/8867237/pexels-photo-8867237.jpeg?auto=compress\u0026cs=tinysrgb\u0026fit=crop\u0026h=1200\u0026w=800","landscape":"https://images.pexels.com/photos/8867237/pexels-photo-8867237.jpeg?auto=compress\u0026cs=tinysrgb\u0026fit=crop\u0026h=627\u0026w=1200","tiny":"https://images.pexels.com/photos/8867237/pexels-photo-8867237.jpeg?auto=compress\u0026cs=tinysrgb\u0026dpr=1\u0026fit=crop\u0026h=200\u0026w=280"},"liked":false,"alt":"Free
        stock photo of adult, business, call center"},{"id":6169589,"width":5949,"height":3966,"url":"https://www.pexels.com/photo/man-and-woman-in-jackets-delivering-packages-6169589/","photographer":"Tima
        Miroshnichenko","photographer_url":"https://www.pexels.com/@tima-miroshnichenko","photographer_id":3088726,"avg_color":"#7B7B7B","src":{"original":"https://images.pexels.com/photos/6169589/pexels-photo-6169589.jpeg","large2x":"https://images.pexels.com/photos/6169589/pexels-photo-6169589.jpeg?auto=compress\u0026cs=tinysrgb\u0026dpr=2\u0026h=650\u0026w=940","large":"https://images.pexels.com/photos/6169589/pexels-photo-6169589.jpeg?auto=compress\u0026cs=tinysrgb\u0026h=650\u0026w=940","medium":"https://images.pexels.com/photos/6169589/pexels-photo-6169589.jpeg?auto=compress\u0026cs=tinysrgb\u0026h=350","small":"https://images.pexels.com/photos/6169589/pexels-photo-6169589.jpeg?auto=compress\u0026cs=tinysrgb\u0026h=130","portrait":"https://images.pexels.com/photos/6169589/pexels-photo-6169589.jpeg?auto=compress\u0026cs=tinysrgb\u0026fit=crop\u0026h=1200\u0026w=800","landscape":"https://images.pexels.com/photos/6169589/pexels-photo-6169589.jpeg?auto=compress\u0026cs=tinysrgb\u0026fit=crop\u0026h=627\u0026w=1200","tiny":"https://images.pexels.com/photos/6169589/pexels-photo-6169589.jpeg?auto=compress\u0026cs=tinysrgb\u0026dpr=1\u0026fit=crop\u0026h=200\u0026w=280"},"liked":false,"alt":"Man
        in Black Jacket and Pants Walking on Sidewalk"},{"id":6169587,"width":3553,"height":5329,"url":"https://www.pexels.com/photo/man-and-woman-carrying-packages-walking-on-the-sidewalk-6169587/","photographer":"Tima
        Miroshnichenko","photographer_url":"https://www.pexels.com/@tima-miroshnichenko","photographer_id":3088726,"avg_color":"#7D8B85","src":{"original":"https://images.pexels.com/photos/6169587/pexels-photo-6169587.jpeg","large2x":"https://images.pexels.com/photos/6169587/pexels-photo-6169587.jpeg?auto=compress\u0026cs=tinysrgb\u0026dpr=2\u0026h=650\u0026w=940","large":"https://images.pexels.com/photos/6169587/pexels-photo-6169587.jpeg?auto=compress\u0026cs=tinysrgb\u0026h=650\u0026w=940","medium":"https://images.pexels.com/photos/6169587/pexels-photo-6169587.jpeg?auto=compress\u0026cs=tinysrgb\u0026h=350","small":"https://images.pexels.com/photos/6169587/pexels-photo-6169587.jpeg?auto=compress\u0026cs=tinysrgb\u0026h=130","portrait":"https://images.pexels.com/photos/6169587/pexels-photo-6169587.jpeg?auto=compress\u0026cs=tinysrgb\u0026fit=crop\u0026h=1200\u0026w=800","landscape":"https://images.pexels.com/photos/6169587/pexels-photo-6169587.jpeg?auto=compress\u0026cs=tinysrgb\u0026fit=crop\u0026h=627\u0026w=1200","tiny":"https://images.pexels.com/photos/6169587/pexels-photo-6169587.jpeg?auto=compress\u0026cs=tinysrgb\u0026dpr=1\u0026fit=crop\u0026h=200\u0026w=280"},"liked":false,"alt":"Man
        and Woman Standing on Green Grass Field"},{"id":7643794,"width":5755,"height":3837,"url":"https://www.pexels.com/photo/colleagues-in-a-meeting-7643794/","photographer":"MART
        PRODUCTION","photographer_url":"https://www.pexels.com/@mart-production","photographer_id":30039676,"avg_color":"#B8B9B6","src":{"original":"https://images.pexels.com/photos/7643794/pexels-photo-7643794.jpeg","large2x":"https://images.pexels.com/photos/7643794/pexels-photo-7643794.jpeg?auto=compress\u0026cs=tinysrgb\u0026dpr=2\u0026h=650\u0026w=940","large":"https://images.pexels.com/photos/7643794/pexels-photo-7643794.jpeg?auto=compress\u0026cs=tinysrgb\u0026h=650\u0026w=940","medium":"https://images.pexels.com/photos/7643794/pexels-photo-7643794.jpeg?auto=compress\u0026cs=tinysrgb\u0026h=350","small":"https://images.pexels.com/photos/7643794/pexels-photo-7643794.jpeg?auto=compress\u0026cs=tinysrgb\u0026h=130","portrait":"https://images.pexels.com/photos/7643794/pexels-photo-7643794.jpeg?auto=compress\u0026cs=tinysrgb\u0026fit=crop\u0026h=1200\u0026w=800","landscape":"https://images.pexels.com/photos/7643794/pexels-photo-7643794.jpeg?auto=compress\u0026cs=tinysrgb\u0026fit=crop\u0026h=627\u0026w=1200","tiny":"https://images.pexels.com/photos/7643794/pexels-photo-7643794.jpeg?auto=compress\u0026cs=tinysrgb\u0026dpr=1\u0026fit=crop\u0026h=200\u0026w=280"},"liked":false,"alt":"Free
        stock photo of adult, asian, asian man"},{"id":7643856,"width":5973,"height":3982,"url":"https://www.pexels.com/photo/colleagues-in-a-meeting-7643856/","photographer":"MART
        PRODUCTION","photographer_url":"https://www.pexels.com/@mart-production","photographer_id":30039676,"avg_color":"#AAACAA","src":{"original":"https://images.pexels.com/photos/7643856/pexels-photo-7643856.jpeg","large2x":"https://images.pexels.com/photos/7643856/pexels-photo-7643856.jpeg?auto=compress\u0026cs=tinysrgb\u0026dpr=2\u0026h=650\u0026w=940","large":"https://images.pexels.com/photos/7643856/pexels-photo-7643856.jpeg?auto=compress\u0026cs=tinysrgb\u0026h=650\u0026w=940","medium":"https://images.pexels.com/photos/7643856/pexels-photo-7643856.jpeg?auto=compress\u0026cs=tinysrgb\u0026h=350","small":"https://images.pexels.com/photos/7643856/pexels-photo-7643856.jpeg?auto=compress\u0026cs=tinysrgb\u0026h=130","portrait":"https://images.pexels.com/photos/7643856/pexels-photo-7643856.jpeg?auto=compress\u0026cs=tinysrgb\u0026fit=crop\u0026h=1200\u0026w=800","landscape":"https://images.pexels.com/photos/7643856/pexels-photo-7643856.jpeg?auto=compress\u0026cs=tinysrgb\u0026fit=crop\u0026h=627\u0026w=1200","tiny":"https://images.pexels.com/photos/7643856/pexels-photo-7643856.jpeg?auto=compress\u0026cs=tinysrgb\u0026dpr=1\u0026fit=crop\u0026h=200\u0026w=280"},"liked":false,"alt":"Free
        stock photo of adult, asian, asian man"},{"id":7643760,"width":6000,"height":4000,"url":"https://www.pexels.com/photo/colleagues-in-a-meeting-7643760/","photographer":"MART
        PRODUCTION","photographer_url":"https://www.pexels.com/@mart-production","photographer_id":30039676,"avg_color":"#827B74","src":{"original":"https://images.pexels.com/photos/7643760/pexels-photo-7643760.jpeg","large2x":"https://images.pexels.com/photos/7643760/pexels-photo-7643760.jpeg?auto=compress\u0026cs=tinysrgb\u0026dpr=2\u0026h=650\u0026w=940","large":"https://images.pexels.com/photos/7643760/pexels-photo-7643760.jpeg?auto=compress\u0026cs=tinysrgb\u0026h=650\u0026w=940","medium":"https://images.pexels.com/photos/7643760/pexels-photo-7643760.jpeg?auto=compress\u0026cs=tinysrgb\u0026h=350","small":"https://images.pexels.com/photos/7643760/pexels-photo-7643760.jpeg?auto=compress\u0026cs=tinysrgb\u0026h=130","portrait":"https://images.pexels.com/photos/7643760/pexels-photo-7643760.jpeg?auto=compress\u0026cs=tinysrgb\u0026fit=crop\u0026h=1200\u0026w=800","landscape":"https://images.pexels.com/photos/7643760/pexels-photo-7643760.jpeg?auto=compress\u0026cs=tinysrgb\u0026fit=crop\u0026h=627\u0026w=1200","tiny":"https://images.pexels.com/photos/7643760/pexels-photo-7643760.jpeg?auto=compress\u0026cs=tinysrgb\u0026dpr=1\u0026fit=crop\u0026h=200\u0026w=280"},"liked":false,"alt":"Free
        stock photo of adult, asian, asian man"},{"id":7643788,"width":3970,"height":5293,"url":"https://www.pexels.com/photo/colleagues-in-a-meeting-7643788/","photographer":"MART
        PRODUCTION","photographer_url":"https://www.pexels.com/@mart-production","photographer_id":30039676,"avg_color":"#BCC0C1","src":{"original":"https://images.pexels.com/photos/7643788/pexels-photo-7643788.jpeg","large2x":"https://images.pexels.com/photos/7643788/pexels-photo-7643788.jpeg?auto=compress\u0026cs=tinysrgb\u0026dpr=2\u0026h=650\u0026w=940","large":"https://images.pexels.com/photos/7643788/pexels-photo-7643788.jpeg?auto=compress\u0026cs=tinysrgb\u0026h=650\u0026w=940","medium":"https://images.pexels.com/photos/7643788/pexels-photo-7643788.jpeg?auto=compress\u0026cs=tinysrgb\u0026h=350","small":"https://images.pexels.com/photos/7643788/pexels-photo-7643788.jpeg?auto=compress\u0026cs=tinysrgb\u0026h=130","portrait":"https://images.pexels.com/photos/7643788/pexels-photo-7643788.jpeg?auto=compress\u0026cs=tinysrgb\u0026fit=crop\u0026h=1200\u0026w=800","landscape":"https://images.pexels.com/photos/7643788/pexels-photo-7643788.jpeg?auto=compress\u0026cs=tinysrgb\u0026fit=crop\u0026h=627\u0026w=1200","tiny":"https://images.pexels.com/photos/7643788/pexels-photo-7643788.jpeg?auto=compress\u0026cs=tinysrgb\u0026dpr=1\u0026fit=crop\u0026h=200\u0026w=280"},"liked":false,"alt":"Man
        in Black Suit Jacket Sitting Beside Man in White Dress Shirt"},{"id":7688087,"width":5184,"height":3888,"url":"https://www.pexels.com/photo/a-man-and-woman-sitting-on-the-chair-while-looking-at-each-other-7688087/","photographer":"Kindel
        Media","photographer_url":"https://www.pexels.com/@kindelmedia","photographer_id":10715715,"avg_color":"#8D9590","src":{"original":"https://images.pexels.com/photos/7688087/pexels-photo-7688087.jpeg","large2x":"https://images.pexels.com/photos/7688087/pexels-photo-7688087.jpeg?auto=compress\u0026cs=tinysrgb\u0026dpr=2\u0026h=650\u0026w=940","large":"https://images.pexels.com/photos/7688087/pexels-photo-7688087.jpeg?auto=compress\u0026cs=tinysrgb\u0026h=650\u0026w=940","medium":"https://images.pexels.com/photos/7688087/pexels-photo-7688087.jpeg?auto=compress\u0026cs=tinysrgb\u0026h=350","small":"https://images.pexels.com/photos/7688087/pexels-photo-7688087.jpeg?auto=compress\u0026cs=tinysrgb\u0026h=130","portrait":"https://images.pexels.com/photos/7688087/pexels-photo-7688087.jpeg?auto=compress\u0026cs=tinysrgb\u0026fit=crop\u0026h=1200\u0026w=800","landscape":"https://images.pexels.com/photos/7688087/pexels-photo-7688087.jpeg?auto=compress\u0026cs=tinysrgb\u0026fit=crop\u0026h=627\u0026w=1200","tiny":"https://images.pexels.com/photos/7688087/pexels-photo-7688087.jpeg?auto=compress\u0026cs=tinysrgb\u0026dpr=1\u0026fit=crop\u0026h=200\u0026w=280"},"liked":false,"alt":"Man
        in Red Polo Shirt Sitting on Chair"},{"id":7688086,"width":4987,"height":3740,"url":"https://www.pexels.com/photo/a-man-and-woman-talking-inside-the-office-7688086/","photographer":"Kindel
        Media","photographer_url":"https://www.pexels.com/@kindelmedia","photographer_id":10715715,"avg_color":"#7D8582","src":{"original":"https://images.pexels.com/photos/7688086/pexels-photo-7688086.jpeg","large2x":"https://images.pexels.com/photos/7688086/pexels-photo-7688086.jpeg?auto=compress\u0026cs=tinysrgb\u0026dpr=2\u0026h=650\u0026w=940","large":"https://images.pexels.com/photos/7688086/pexels-photo-7688086.jpeg?auto=compress\u0026cs=tinysrgb\u0026h=650\u0026w=940","medium":"https://images.pexels.com/photos/7688086/pexels-photo-7688086.jpeg?auto=compress\u0026cs=tinysrgb\u0026h=350","small":"https://images.pexels.com/photos/7688086/pexels-photo-7688086.jpeg?auto=compress\u0026cs=tinysrgb\u0026h=130","portrait":"https://images.pexels.com/photos/7688086/pexels-photo-7688086.jpeg?auto=compress\u0026cs=tinysrgb\u0026fit=crop\u0026h=1200\u0026w=800","landscape":"https://images.pexels.com/photos/7688086/pexels-photo-7688086.jpeg?auto=compress\u0026cs=tinysrgb\u0026fit=crop\u0026h=627\u0026w=1200","tiny":"https://images.pexels.com/photos/7688086/pexels-photo-7688086.jpeg?auto=compress\u0026cs=tinysrgb\u0026dpr=1\u0026fit=crop\u0026h=200\u0026w=280"},"liked":false,"alt":"Woman
        in Black and White Stripe Long Sleeve Shirt Sitting on Chair"},{"id":7688083,"width":5184,"height":3888,"url":"https://www.pexels.com/photo/a-man-and-woman-planning-while-looking-at-the-laptop-7688083/","photographer":"Kindel
        Media","photographer_url":"https://www.pexels.com/@kindelmedia","photographer_id":10715715,"avg_color":"#959B99","src":{"original":"https://images.pexels.com/photos/7688083/pexels-photo-7688083.jpeg","large2x":"https://images.pexels.com/photos/7688083/pexels-photo-7688083.jpeg?auto=compress\u0026cs=tinysrgb\u0026dpr=2\u0026h=650\u0026w=940","large":"https://images.pexels.com/photos/7688083/pexels-photo-7688083.jpeg?auto=compress\u0026cs=tinysrgb\u0026h=650\u0026w=940","medium":"https://images.pexels.com/photos/7688083/pexels-photo-7688083.jpeg?auto=compress\u0026cs=tinysrgb\u0026h=350","small":"https://images.pexels.com/photos/7688083/pexels-photo-7688083.jpeg?auto=compress\u0026cs=tinysrgb\u0026h=130","portrait":"https://images.pexels.com/photos/7688083/pexels-photo-7688083.jpeg?auto=compress\u0026cs=tinysrgb\u0026fit=crop\u0026h=1200\u0026w=800","landscape":"https://images.pexels.com/photos/7688083/pexels-photo-7688083.jpeg?auto=compress\u0026cs=tinysrgb\u0026fit=crop\u0026h=627\u0026w=1200","tiny":"https://images.pexels.com/photos/7688083/pexels-photo-7688083.jpeg?auto=compress\u0026cs=tinysrgb\u0026dpr=1\u0026fit=crop\u0026h=200\u0026w=280"},"liked":false,"alt":"Man
        and Woman Sitting on Chair"},{"id":7688082,"width":4769,"height":3577,"url":"https://www.pexels.com/photo/a-man-and-woman-planning-their-business-together-7688082/","photographer":"Kindel
        Media","photographer_url":"https://www.pexels.com/@kindelmedia","photographer_id":10715715,"avg_color":"#9A9896","src":{"original":"https://images.pexels.com/photos/7688082/pexels-photo-7688082.jpeg","large2x":"https://images.pexels.com/photos/7688082/pexels-photo-7688082.jpeg?auto=compress\u0026cs=tinysrgb\u0026dpr=2\u0026h=650\u0026w=940","large":"https://images.pexels.com/photos/7688082/pexels-photo-7688082.jpeg?auto=compress\u0026cs=tinysrgb\u0026h=650\u0026w=940","medium":"https://images.pexels.com/photos/7688082/pexels-photo-7688082.jpeg?auto=compress\u0026cs=tinysrgb\u0026h=350","small":"https://images.pexels.com/photos/7688082/pexels-photo-7688082.jpeg?auto=compress\u0026cs=tinysrgb\u0026h=130","portrait":"https://images.pexels.com/photos/7688082/pexels-photo-7688082.jpeg?auto=compress\u0026cs=tinysrgb\u0026fit=crop\u0026h=1200\u0026w=800","landscape":"https://images.pexels.com/photos/7688082/pexels-photo-7688082.jpeg?auto=compress\u0026cs=tinysrgb\u0026fit=crop\u0026h=627\u0026w=1200","tiny":"https://images.pexels.com/photos/7688082/pexels-photo-7688082.jpeg?auto=compress\u0026cs=tinysrgb\u0026dpr=1\u0026fit=crop\u0026h=200\u0026w=280"},"liked":false,"alt":"Free
        stock photo of adolescent, analysis, brainstorming"},{"id":7688080,"width":4835,"height":3626,"url":"https://www.pexels.com/photo/a-man-and-woman-having-conversation-while-looking-at-the-laptop-7688080/","photographer":"Kindel
        Media","photographer_url":"https://www.pexels.com/@kindelmedia","photographer_id":10715715,"avg_color":"#98938F","src":{"original":"https://images.pexels.com/photos/7688080/pexels-photo-7688080.jpeg","large2x":"https://images.pexels.com/photos/7688080/pexels-photo-7688080.jpeg?auto=compress\u0026cs=tinysrgb\u0026dpr=2\u0026h=650\u0026w=940","large":"https://images.pexels.com/photos/7688080/pexels-photo-7688080.jpeg?auto=compress\u0026cs=tinysrgb\u0026h=650\u0026w=940","medium":"https://images.pexels.com/photos/7688080/pexels-photo-7688080.jpeg?auto=compress\u0026cs=tinysrgb\u0026h=350","small":"https://images.pexels.com/photos/7688080/pexels-photo-7688080.jpeg?auto=compress\u0026cs=tinysrgb\u0026h=130","portrait":"https://images.pexels.com/photos/7688080/pexels-photo-7688080.jpeg?auto=compress\u0026cs=tinysrgb\u0026fit=crop\u0026h=1200\u0026w=800","landscape":"https://images.pexels.com/photos/7688080/pexels-photo-7688080.jpeg?auto=compress\u0026cs=tinysrgb\u0026fit=crop\u0026h=627\u0026w=1200","tiny":"https://images.pexels.com/photos/7688080/pexels-photo-7688080.jpeg?auto=compress\u0026cs=tinysrgb\u0026dpr=1\u0026fit=crop\u0026h=200\u0026w=280"},"liked":false,"alt":"Man
        in Blue and White Checkered Button Up Shirt Holding Black Pen"},{"id":9034768,"width":6720,"height":4480,"url":"https://www.pexels.com/photo/people-discussing-during-a-meeting-9034768/","photographer":"RODNAE
        Productions","photographer_url":"https://www.pexels.com/@rodnae-prod","photographer_id":3149039,"avg_color":"#6B615F","src":{"original":"https://images.pexels.com/photos/9034768/pexels-photo-9034768.jpeg","large2x":"https://images.pexels.com/photos/9034768/pexels-photo-9034768.jpeg?auto=compress\u0026cs=tinysrgb\u0026dpr=2\u0026h=650\u0026w=940","large":"https://images.pexels.com/photos/9034768/pexels-photo-9034768.jpeg?auto=compress\u0026cs=tinysrgb\u0026h=650\u0026w=940","medium":"https://images.pexels.com/photos/9034768/pexels-photo-9034768.jpeg?auto=compress\u0026cs=tinysrgb\u0026h=350","small":"https://images.pexels.com/photos/9034768/pexels-photo-9034768.jpeg?auto=compress\u0026cs=tinysrgb\u0026h=130","portrait":"https://images.pexels.com/photos/9034768/pexels-photo-9034768.jpeg?auto=compress\u0026cs=tinysrgb\u0026fit=crop\u0026h=1200\u0026w=800","landscape":"https://images.pexels.com/photos/9034768/pexels-photo-9034768.jpeg?auto=compress\u0026cs=tinysrgb\u0026fit=crop\u0026h=627\u0026w=1200","tiny":"https://images.pexels.com/photos/9034768/pexels-photo-9034768.jpeg?auto=compress\u0026cs=tinysrgb\u0026dpr=1\u0026fit=crop\u0026h=200\u0026w=280"},"liked":false,"alt":"Person
        in Black Shirt Holding White Printer Paper"},{"id":7278890,"width":6510,"height":4340,"url":"https://www.pexels.com/photo/man-and-woman-sitting-at-the-table-7278890/","photographer":"Anastasia  Shuraeva","photographer_url":"https://www.pexels.com/@anastasia-shuraeva","photographer_id":2441340,"avg_color":"#ABA192","src":{"original":"https://images.pexels.com/photos/7278890/pexels-photo-7278890.jpeg","large2x":"https://images.pexels.com/photos/7278890/pexels-photo-7278890.jpeg?auto=compress\u0026cs=tinysrgb\u0026dpr=2\u0026h=650\u0026w=940","large":"https://images.pexels.com/photos/7278890/pexels-photo-7278890.jpeg?auto=compress\u0026cs=tinysrgb\u0026h=650\u0026w=940","medium":"https://images.pexels.com/photos/7278890/pexels-photo-7278890.jpeg?auto=compress\u0026cs=tinysrgb\u0026h=350","small":"https://images.pexels.com/photos/7278890/pexels-photo-7278890.jpeg?auto=compress\u0026cs=tinysrgb\u0026h=130","portrait":"https://images.pexels.com/photos/7278890/pexels-photo-7278890.jpeg?auto=compress\u0026cs=tinysrgb\u0026fit=crop\u0026h=1200\u0026w=800","landscape":"https://images.pexels.com/photos/7278890/pexels-photo-7278890.jpeg?auto=compress\u0026cs=tinysrgb\u0026fit=crop\u0026h=627\u0026w=1200","tiny":"https://images.pexels.com/photos/7278890/pexels-photo-7278890.jpeg?auto=compress\u0026cs=tinysrgb\u0026dpr=1\u0026fit=crop\u0026h=200\u0026w=280"},"liked":false,"alt":"Man
        and Woman Sitting at the Table"}],"total_results":2198,"next_page":"https://api.pexels.com/v1/search/?page=2\u0026per_page=15\u0026query=denver%2Cco"}'
  recorded_at: Sat, 23 Apr 2022 21:05:53 GMT
recorded_with: VCR 6.1.0
